%YAML 1.1
%TAG !u! tag:unity3d.com,2011:
--- !u!114 &11400000
MonoBehaviour:
  m_ObjectHideFlags: 0
  m_CorrespondingSourceObject: {fileID: 0}
  m_PrefabInstance: {fileID: 0}
  m_PrefabAsset: {fileID: 0}
  m_GameObject: {fileID: 0}
  m_Enabled: 1
  m_EditorHideFlags: 0
  m_Script: {fileID: 11500000, guid: 1fff776fb89c744e19f321c38fd8d84e, type: 3}
  m_Name: A281B116-48E4-472B-B85F-67EF45C92975
  m_EditorClassIdentifier: 
  objectName: aquarium
  id: 456876952
  guid: A281B116-48E4-472B-B85F-67EF45C92975
